{
	"href" : "https://api.spotify.com/v1/users/brent01002/playlists?offset=0&limit=20",
	"items" : [ {
	  "collaborative" : false,
	  "description" : "<p>Enter another dimension of classical music with these atmospheric Sci-fi soundtracks. Twin playlist: <a href=\"spotify:user:spotify:playlist:37i9dQZF1DX0i61tT0OnnK\">Space-themed Classical Music</a>.</p>",
	  "external_urls" : {
		"spotify" : "https://open.spotify.com/playlist/37i9dQZF1DXbIeCFU20wRm"
	  },
	  "href" : "https://api.spotify.com/v1/playlists/37i9dQZF1DXbIeCFU20wRm",
	  "id" : "37i9dQZF1DXbIeCFU20wRm",
	  "images" : [ {
		"height" : null,
		"url" : "https://i.scdn.co/image/ab67706f00000003543c9b8ccbe5fc781758f0d8",
		"width" : null
	  } ],
	  "name" : "Atmospheric Sci-fi Soundtracks",
	  "owner" : {
		"display_name" : "Spotify",
		"external_urls" : {
		  "spotify" : "https://open.spotify.com/user/spotify"
		},
		"href" : "https://api.spotify.com/v1/users/spotify",
		"id" : "spotify",
		"type" : "user",
		"uri" : "spotify:user:spotify"
	  },
	  "primary_color" : null,
	  "public" : false,
	  "snapshot_id" : "MTU4Mzg0ODkzMywwMDAwMDAwYzAwMDAwMTZkZGU2YjBjZjkwMDAwMDE3MGM0YzBjOWRh",
	  "tracks" : {
		"href" : "https://api.spotify.com/v1/playlists/37i9dQZF1DXbIeCFU20wRm/tracks",
		"total" : 56
	  },
	  "type" : "playlist",
	  "uri" : "spotify:playlist:37i9dQZF1DXbIeCFU20wRm"
	}, {
	  "collaborative" : false,
	  "description" : "Relaxing soundtracks to help you escape and unwind. ",
	  "external_urls" : {
		"spotify" : "https://open.spotify.com/playlist/37i9dQZF1DWVFJtzvDHN4L"
	  },
	  "href" : "https://api.spotify.com/v1/playlists/37i9dQZF1DWVFJtzvDHN4L",
	  "id" : "37i9dQZF1DWVFJtzvDHN4L",
	  "images" : [ {
		"height" : null,
		"url" : "https://i.scdn.co/image/ab67706f0000000363f60a6e4da4b3e3ec60e406",
		"width" : null
	  } ],
	  "name" : "Cinematic Chillout",
	  "owner" : {
		"display_name" : "Spotify",
		"external_urls" : {
		  "spotify" : "https://open.spotify.com/user/spotify"
		},
		"href" : "https://api.spotify.com/v1/users/spotify",
		"id" : "spotify",
		"type" : "user",
		"uri" : "spotify:user:spotify"
	  },
	  "primary_color" : null,
	  "public" : false,
	  "snapshot_id" : "MTYyMzM4NDA2MCwwMDAwMDA0ZDAwMDAwMTc5ZjkzYWYwZmEwMDAwMDE2ZDE1MjkxN2Ex",
	  "tracks" : {
		"href" : "https://api.spotify.com/v1/playlists/37i9dQZF1DWVFJtzvDHN4L/tracks",
		"total" : 62
	  },
	  "type" : "playlist",
	  "uri" : "spotify:playlist:37i9dQZF1DWVFJtzvDHN4L"
	}, {
	  "collaborative" : false,
	  "description" : "Do peace. Make love",
	  "external_urls" : {
		"spotify" : "https://open.spotify.com/playlist/6oUGJ2Hl8uoZZAzaUfObJI"
	  },
	  "href" : "https://api.spotify.com/v1/playlists/6oUGJ2Hl8uoZZAzaUfObJI",
	  "id" : "6oUGJ2Hl8uoZZAzaUfObJI",
	  "images" : [ {
		"height" : null,
		"url" : "https://i.scdn.co/image/ab67706c0000bebbeaf937cadbb26bf85d1e51d5",
		"width" : null
	  } ],
	  "name" : "Anti-War",
	  "owner" : {
		"display_name" : "Berend210",
		"external_urls" : {
		  "spotify" : "https://open.spotify.com/user/berend210"
		},
		"href" : "https://api.spotify.com/v1/users/berend210",
		"id" : "berend210",
		"type" : "user",
		"uri" : "spotify:user:berend210"
	  },
	  "primary_color" : null,
	  "public" : false,
	  "snapshot_id" : "MzQsNTFhZDkwNTU2YTQ0MjczYzdhN2NhMThmNzczNDdhNzhiNDE2ZDY2MA==",
	  "tracks" : {
		"href" : "https://api.spotify.com/v1/playlists/6oUGJ2Hl8uoZZAzaUfObJI/tracks",
		"total" : 28
	  },
	  "type" : "playlist",
	  "uri" : "spotify:playlist:6oUGJ2Hl8uoZZAzaUfObJI"
	}, {
	  "collaborative" : true,
	  "description" : "",
	  "external_urls" : {
		"spotify" : "https://open.spotify.com/playlist/44Vy6o4xYVIyCXsoDftxKK"
	  },
	  "href" : "https://api.spotify.com/v1/playlists/44Vy6o4xYVIyCXsoDftxKK",
	  "id" : "44Vy6o4xYVIyCXsoDftxKK",
	  "images" : [ {
		"height" : null,
		"url" : "https://i.scdn.co/image/ab67706c0000bebbdbbd28a9346b9da32cf4da56",
		"width" : null
	  } ],
	  "name" : "ABSolutely not",
	  "owner" : {
		"display_name" : "Jeroen Leeters",
		"external_urls" : {
		  "spotify" : "https://open.spotify.com/user/goldenglobe2014"
		},
		"href" : "https://api.spotify.com/v1/users/goldenglobe2014",
		"id" : "goldenglobe2014",
		"type" : "user",
		"uri" : "spotify:user:goldenglobe2014"
	  },
	  "primary_color" : null,
	  "public" : false,
	  "snapshot_id" : "NzMsZjViMmQzOTNjYTgwYWI4NTIwOTc0YmY5NzE4MGUyNzYyZTkzZTA2OA==",
	  "tracks" : {
		"href" : "https://api.spotify.com/v1/playlists/44Vy6o4xYVIyCXsoDftxKK/tracks",
		"total" : 57
	  },
	  "type" : "playlist",
	  "uri" : "spotify:playlist:44Vy6o4xYVIyCXsoDftxKK"
	}, {
	  "collaborative" : true,
	  "description" : "",
	  "external_urls" : {
		"spotify" : "https://open.spotify.com/playlist/0QTRkjo8Vaa7DerSc8j1vd"
	  },
	  "href" : "https://api.spotify.com/v1/playlists/0QTRkjo8Vaa7DerSc8j1vd",
	  "id" : "0QTRkjo8Vaa7DerSc8j1vd",
	  "images" : [ {
		"height" : 640,
		"url" : "https://mosaic.scdn.co/640/ab67616d0000b2733066581d697fbdee4303d685ab67616d0000b2734ae1c4c5c45aabe565499163ab67616d0000b27364bd23d64f90b1910ead95a1ab67616d0000b273b7ee50d904524efd47009114",
		"width" : 640
	  }, {
		"height" : 300,
		"url" : "https://mosaic.scdn.co/300/ab67616d0000b2733066581d697fbdee4303d685ab67616d0000b2734ae1c4c5c45aabe565499163ab67616d0000b27364bd23d64f90b1910ead95a1ab67616d0000b273b7ee50d904524efd47009114",
		"width" : 300
	  }, {
		"height" : 60,
		"url" : "https://mosaic.scdn.co/60/ab67616d0000b2733066581d697fbdee4303d685ab67616d0000b2734ae1c4c5c45aabe565499163ab67616d0000b27364bd23d64f90b1910ead95a1ab67616d0000b273b7ee50d904524efd47009114",
		"width" : 60
	  } ],
	  "name" : "eieren",
	  "owner" : {
		"display_name" : "brent01002",
		"external_urls" : {
		  "spotify" : "https://open.spotify.com/user/brent01002"
		},
		"href" : "https://api.spotify.com/v1/users/brent01002",
		"id" : "brent01002",
		"type" : "user",
		"uri" : "spotify:user:brent01002"
	  },
	  "primary_color" : null,
	  "public" : false,
	  "snapshot_id" : "OSw1MGQzOGM5ZjdlYmY2ZjVjOTk5YmFjOTcxMjc3OGZkOTE0N2Y3ODJm",
	  "tracks" : {
		"href" : "https://api.spotify.com/v1/playlists/0QTRkjo8Vaa7DerSc8j1vd/tracks",
		"total" : 7
	  },
	  "type" : "playlist",
	  "uri" : "spotify:playlist:0QTRkjo8Vaa7DerSc8j1vd"
	}, {
	  "collaborative" : true,
	  "description" : "",
	  "external_urls" : {
		"spotify" : "https://open.spotify.com/playlist/0dqyx55ZP6zo7TCwiq7TXa"
	  },
	  "href" : "https://api.spotify.com/v1/playlists/0dqyx55ZP6zo7TCwiq7TXa",
	  "id" : "0dqyx55ZP6zo7TCwiq7TXa",
	  "images" : [ {
		"height" : 640,
		"url" : "https://mosaic.scdn.co/640/ab67616d0000b2733a23ec636e86ddccaf1b5447ab67616d0000b27380eb31d4f1ce8158f8adbebcab67616d0000b273efddc987485434531db4087fab67616d0000b273f34271087aee2820899d0440",
		"width" : 640
	  }, {
		"height" : 300,
		"url" : "https://mosaic.scdn.co/300/ab67616d0000b2733a23ec636e86ddccaf1b5447ab67616d0000b27380eb31d4f1ce8158f8adbebcab67616d0000b273efddc987485434531db4087fab67616d0000b273f34271087aee2820899d0440",
		"width" : 300
	  }, {
		"height" : 60,
		"url" : "https://mosaic.scdn.co/60/ab67616d0000b2733a23ec636e86ddccaf1b5447ab67616d0000b27380eb31d4f1ce8158f8adbebcab67616d0000b273efddc987485434531db4087fab67616d0000b273f34271087aee2820899d0440",
		"width" : 60
	  } ],
	  "name" : "I see eggs",
	  "owner" : {
		"display_name" : "Jeroen Leeters",
		"external_urls" : {
		  "spotify" : "https://open.spotify.com/user/goldenglobe2014"
		},
		"href" : "https://api.spotify.com/v1/users/goldenglobe2014",
		"id" : "goldenglobe2014",
		"type" : "user",
		"uri" : "spotify:user:goldenglobe2014"
	  },
	  "primary_color" : null,
	  "public" : false,
	  "snapshot_id" : "MTcsNWVkZTZmYTljZTkyMDMxNjYxZThhYzlkOWU0NmMwNWRiZDFhZGU2Zg==",
	  "tracks" : {
		"href" : "https://api.spotify.com/v1/playlists/0dqyx55ZP6zo7TCwiq7TXa/tracks",
		"total" : 14
	  },
	  "type" : "playlist",
	  "uri" : "spotify:playlist:0dqyx55ZP6zo7TCwiq7TXa"
	}, {
	  "collaborative" : false,
	  "description" : "Kerst Hits Top 100 (Kerst 2021): Kerst muziek en Kerst Hits voor het ultieme Kerst gevoel. De Kerst Hits Top 100 met Kerst hits en Kerst nummers van o.a. Michael Bublé, Wham! en Mariah Carey | Kerstmuziek - Kerst Hits - Kerst Muziek - Kerst - Kerst 2021 - Kerstmis - Kerst - Sky Radio Christmas",
	  "external_urls" : {
		"spotify" : "https://open.spotify.com/playlist/4ySBOZpZhDhedICWKPKtrP"
	  },
	  "href" : "https://api.spotify.com/v1/playlists/4ySBOZpZhDhedICWKPKtrP",
	  "id" : "4ySBOZpZhDhedICWKPKtrP",
	  "images" : [ {
		"height" : null,
		"url" : "https://i.scdn.co/image/ab67706c0000bebb1fd0bd871aefe7641f289d50",
		"width" : null
	  } ],
	  "name" : "Kerst Hits Top 100 (Kerst 2021)",
	  "owner" : {
		"display_name" : "Topsify Nederland",
		"external_urls" : {
		  "spotify" : "https://open.spotify.com/user/playlistme.nl"
		},
		"href" : "https://api.spotify.com/v1/users/playlistme.nl",
		"id" : "playlistme.nl",
		"type" : "user",
		"uri" : "spotify:user:playlistme.nl"
	  },
	  "primary_color" : null,
	  "public" : false,
	  "snapshot_id" : "MTI0NyxkZWMxNGQ5NmU3NmYyNDNkOWM0NmRiZWRlYmYwZjc0MjE4NTdiNDE4",
	  "tracks" : {
		"href" : "https://api.spotify.com/v1/playlists/4ySBOZpZhDhedICWKPKtrP/tracks",
		"total" : 100
	  },
	  "type" : "playlist",
	  "uri" : "spotify:playlist:4ySBOZpZhDhedICWKPKtrP"
	}, {
	  "collaborative" : false,
	  "description" : "Vier kerst met o.a. Ariana Grande, Justin Bieber, Sam Smith,  Alessia Cara en nog veel meer! | Foto: Emma Heesters",
	  "external_urls" : {
		"spotify" : "https://open.spotify.com/playlist/3O0kMqzoS3M9iir5FUzkZS"
	  },
	  "href" : "https://api.spotify.com/v1/playlists/3O0kMqzoS3M9iir5FUzkZS",
	  "id" : "3O0kMqzoS3M9iir5FUzkZS",
	  "images" : [ {
		"height" : null,
		"url" : "https://i.scdn.co/image/ab67706c0000bebb6f77d44e398330668ff9843c",
		"width" : null
	  } ],
	  "name" : "Kerst Pop 2020",
	  "owner" : {
		"display_name" : "Digster Nederland",
		"external_urls" : {
		  "spotify" : "https://open.spotify.com/user/digsternl"
		},
		"href" : "https://api.spotify.com/v1/users/digsternl",
		"id" : "digsternl",
		"type" : "user",
		"uri" : "spotify:user:digsternl"
	  },
	  "primary_color" : null,
	  "public" : false,
	  "snapshot_id" : "NTAyOCxlMjYxY2FjYzk4OTVjNTEzNjM0NDllYWNjMjk5MGU1MmM5YTRhNDUz",
	  "tracks" : {
		"href" : "https://api.spotify.com/v1/playlists/3O0kMqzoS3M9iir5FUzkZS/tracks",
		"total" : 121
	  },
	  "type" : "playlist",
	  "uri" : "spotify:playlist:3O0kMqzoS3M9iir5FUzkZS"
	}, {
	  "collaborative" : false,
	  "description" : "De ideale playlist voor het fijne kerstgevoel!",
	  "external_urls" : {
		"spotify" : "https://open.spotify.com/playlist/37i9dQZF1DX4dopZ9vOp1t"
	  },
	  "href" : "https://api.spotify.com/v1/playlists/37i9dQZF1DX4dopZ9vOp1t",
	  "id" : "37i9dQZF1DX4dopZ9vOp1t",
	  "images" : [ {
		"height" : null,
		"url" : "https://i.scdn.co/image/ab67706f00000003a6ea045873eceb363ff27cbb",
		"width" : null
	  } ],
	  "name" : "Kerst bij de Boom",
	  "owner" : {
		"display_name" : "Spotify",
		"external_urls" : {
		  "spotify" : "https://open.spotify.com/user/spotify"
		},
		"href" : "https://api.spotify.com/v1/users/spotify",
		"id" : "spotify",
		"type" : "user",
		"uri" : "spotify:user:spotify"
	  },
	  "primary_color" : null,
	  "public" : false,
	  "snapshot_id" : "MTYxNzc5MjE4MywwMDAwMDA5NTAwMDAwMTc4YWJlZGFiYWQwMDAwMDE2ZDAwYjQ2NDAx",
	  "tracks" : {
		"href" : "https://api.spotify.com/v1/playlists/37i9dQZF1DX4dopZ9vOp1t/tracks",
		"total" : 298
	  },
	  "type" : "playlist",
	  "uri" : "spotify:playlist:37i9dQZF1DX4dopZ9vOp1t"
	}, {
	  "collaborative" : false,
	  "description" : "The songs you loved most this year, all wrapped up.",
	  "external_urls" : {
		"spotify" : "https://open.spotify.com/playlist/37i9dQZF1EMbI0e5OUnUEU"
	  },
	  "href" : "https://api.spotify.com/v1/playlists/37i9dQZF1EMbI0e5OUnUEU",
	  "id" : "37i9dQZF1EMbI0e5OUnUEU",
	  "images" : [ {
		"height" : null,
		"url" : "https://lineup-images.scdn.co/wrapped-2020-top100_LARGE-en.jpg",
		"width" : null
	  } ],
	  "name" : "Your Top Songs 2020",
	  "owner" : {
		"display_name" : "Spotify",
		"external_urls" : {
		  "spotify" : "https://open.spotify.com/user/spotify"
		},
		"href" : "https://api.spotify.com/v1/users/spotify",
		"id" : "spotify",
		"type" : "user",
		"uri" : "spotify:user:spotify"
	  },
	  "primary_color" : null,
	  "public" : false,
	  "snapshot_id" : "MjY3NzQ2OTYsMDAwMDAwMDA3MWIzZDNkMmU3NDU2YTcyNTIzZjMxZTUwNzhiY2ZiMA==",
	  "tracks" : {
		"href" : "https://api.spotify.com/v1/playlists/37i9dQZF1EMbI0e5OUnUEU/tracks",
		"total" : 100
	  },
	  "type" : "playlist",
	  "uri" : "spotify:playlist:37i9dQZF1EMbI0e5OUnUEU"
	}, {
	  "collaborative" : false,
	  "description" : "Every single cover we&#x27;ve ever done... EVER!",
	  "external_urls" : {
		"spotify" : "https://open.spotify.com/playlist/5EMPESNp6iQnyzAx8hNmlM"
	  },
	  "href" : "https://api.spotify.com/v1/playlists/5EMPESNp6iQnyzAx8hNmlM",
	  "id" : "5EMPESNp6iQnyzAx8hNmlM",
	  "images" : [ {
		"height" : null,
		"url" : "https://i.scdn.co/image/ab67706c0000bebbe4c715608b7a5027dc861389",
		"width" : null
	  } ],
	  "name" : "First To Eleven Covers",
	  "owner" : {
		"display_name" : "audramllr",
		"external_urls" : {
		  "spotify" : "https://open.spotify.com/user/audramllr"
		},
		"href" : "https://api.spotify.com/v1/users/audramllr",
		"id" : "audramllr",
		"type" : "user",
		"uri" : "spotify:user:audramllr"
	  },
	  "primary_color" : null,
	  "public" : false,
	  "snapshot_id" : "MTEwLGIxNWQ2YWY0MGFiYzk1NTQ1MDMzNDBlNjI0NmJhMGRhNDBjN2VjNDQ=",
	  "tracks" : {
		"href" : "https://api.spotify.com/v1/playlists/5EMPESNp6iQnyzAx8hNmlM/tracks",
		"total" : 159
	  },
	  "type" : "playlist",
	  "uri" : "spotify:playlist:5EMPESNp6iQnyzAx8hNmlM"
	}, {
	  "collaborative" : true,
	  "description" : "",
	  "external_urls" : {
		"spotify" : "https://open.spotify.com/playlist/3P2a0XXlvkNTrLF651pZmu"
	  },
	  "href" : "https://api.spotify.com/v1/playlists/3P2a0XXlvkNTrLF651pZmu",
	  "id" : "3P2a0XXlvkNTrLF651pZmu",
	  "images" : [ {
		"height" : 640,
		"url" : "https://mosaic.scdn.co/640/ab67616d0000b273533016f799085209ebd4dab0ab67616d0000b2736db1a5079623a15795064a09ab67616d0000b273cd318f88c2016b08fa9834f9ab67616d0000b273d54c4b12c9242bda37f4bb25",
		"width" : 640
	  }, {
		"height" : 300,
		"url" : "https://mosaic.scdn.co/300/ab67616d0000b273533016f799085209ebd4dab0ab67616d0000b2736db1a5079623a15795064a09ab67616d0000b273cd318f88c2016b08fa9834f9ab67616d0000b273d54c4b12c9242bda37f4bb25",
		"width" : 300
	  }, {
		"height" : 60,
		"url" : "https://mosaic.scdn.co/60/ab67616d0000b273533016f799085209ebd4dab0ab67616d0000b2736db1a5079623a15795064a09ab67616d0000b273cd318f88c2016b08fa9834f9ab67616d0000b273d54c4b12c9242bda37f4bb25",
		"width" : 60
	  } ],
	  "name" : ".stargazing.",
	  "owner" : {
		"display_name" : "Jeroen Leeters",
		"external_urls" : {
		  "spotify" : "https://open.spotify.com/user/goldenglobe2014"
		},
		"href" : "https://api.spotify.com/v1/users/goldenglobe2014",
		"id" : "goldenglobe2014",
		"type" : "user",
		"uri" : "spotify:user:goldenglobe2014"
	  },
	  "primary_color" : null,
	  "public" : false,
	  "snapshot_id" : "MzEsZTQ3NTY4MTU2MmIzZTdmYTkzMjYzYzQ3ODFiNzIyZjIzZWU1MzBiZA==",
	  "tracks" : {
		"href" : "https://api.spotify.com/v1/playlists/3P2a0XXlvkNTrLF651pZmu/tracks",
		"total" : 27
	  },
	  "type" : "playlist",
	  "uri" : "spotify:playlist:3P2a0XXlvkNTrLF651pZmu"
	}, {
	  "collaborative" : false,
	  "description" : "Luister naar de Top 2000 van NPO Radio 2! - Editie 2020.",
	  "external_urls" : {
		"spotify" : "https://open.spotify.com/playlist/37i9dQZF1DWTmvXBN4DgpA"
	  },
	  "href" : "https://api.spotify.com/v1/playlists/37i9dQZF1DWTmvXBN4DgpA",
	  "id" : "37i9dQZF1DWTmvXBN4DgpA",
	  "images" : [ {
		"height" : null,
		"url" : "https://i.scdn.co/image/ab67706f00000003edfe53021b302d2914d38c8b",
		"width" : null
	  } ],
	  "name" : "Top 2000",
	  "owner" : {
		"display_name" : "Spotify",
		"external_urls" : {
		  "spotify" : "https://open.spotify.com/user/spotify"
		},
		"href" : "https://api.spotify.com/v1/users/spotify",
		"id" : "spotify",
		"type" : "user",
		"uri" : "spotify:user:spotify"
	  },
	  "primary_color" : null,
	  "public" : false,
	  "snapshot_id" : "MTYyMTAwNDU0NSwwMDAwMDAxNjAwMDAwMTc5NmI2NjZkZmIwMDAwMDE3NjcxYmExODY0",
	  "tracks" : {
		"href" : "https://api.spotify.com/v1/playlists/37i9dQZF1DWTmvXBN4DgpA/tracks",
		"total" : 1997
	  },
	  "type" : "playlist",
	  "uri" : "spotify:playlist:37i9dQZF1DWTmvXBN4DgpA"
	}, {
	  "collaborative" : false,
	  "description" : "",
	  "external_urls" : {
		"spotify" : "https://open.spotify.com/playlist/4uHFakrRhgT79dWVkrmuTr"
	  },
	  "href" : "https://api.spotify.com/v1/playlists/4uHFakrRhgT79dWVkrmuTr",
	  "id" : "4uHFakrRhgT79dWVkrmuTr",
	  "images" : [ {
		"height" : 640,
		"url" : "https://mosaic.scdn.co/640/ab67616d0000b273582d56ce20fe0146ffa0e5cfab67616d0000b27381ef6477bfe32dc55845ef27ab67616d0000b273b183047805b5b6a60c917023ab67616d0000b273cf84c5b276431b473e924802",
		"width" : 640
	  }, {
		"height" : 300,
		"url" : "https://mosaic.scdn.co/300/ab67616d0000b273582d56ce20fe0146ffa0e5cfab67616d0000b27381ef6477bfe32dc55845ef27ab67616d0000b273b183047805b5b6a60c917023ab67616d0000b273cf84c5b276431b473e924802",
		"width" : 300
	  }, {
		"height" : 60,
		"url" : "https://mosaic.scdn.co/60/ab67616d0000b273582d56ce20fe0146ffa0e5cfab67616d0000b27381ef6477bfe32dc55845ef27ab67616d0000b273b183047805b5b6a60c917023ab67616d0000b273cf84c5b276431b473e924802",
		"width" : 60
	  } ],
	  "name" : "Top 2000 2018 Stemlijst",
	  "owner" : {
		"display_name" : "brent01002",
		"external_urls" : {
		  "spotify" : "https://open.spotify.com/user/brent01002"
		},
		"href" : "https://api.spotify.com/v1/users/brent01002",
		"id" : "brent01002",
		"type" : "user",
		"uri" : "spotify:user:brent01002"
	  },
	  "primary_color" : null,
	  "public" : true,
	  "snapshot_id" : "MzksODNkMmEwMjJiNzllYWZjOTJmZmFhMzRiNTRlOWRiMTNhMWE2YjBkYw==",
	  "tracks" : {
		"href" : "https://api.spotify.com/v1/playlists/4uHFakrRhgT79dWVkrmuTr/tracks",
		"total" : 34
	  },
	  "type" : "playlist",
	  "uri" : "spotify:playlist:4uHFakrRhgT79dWVkrmuTr"
	}, {
	  "collaborative" : false,
	  "description" : "",
	  "external_urls" : {
		"spotify" : "https://open.spotify.com/playlist/3vVJtlzkmcWCOVdx5bkz8L"
	  },
	  "href" : "https://api.spotify.com/v1/playlists/3vVJtlzkmcWCOVdx5bkz8L",
	  "id" : "3vVJtlzkmcWCOVdx5bkz8L",
	  "images" : [ {
		"height" : 640,
		"url" : "https://mosaic.scdn.co/640/ab67616d0000b2734637341b9f507521afa9a778ab67616d0000b2739dfee5404d5e0763998c958eab67616d0000b273cf84c5b276431b473e924802ab67616d0000b273e319baafd16e84f0408af2a0",
		"width" : 640
	  }, {
		"height" : 300,
		"url" : "https://mosaic.scdn.co/300/ab67616d0000b2734637341b9f507521afa9a778ab67616d0000b2739dfee5404d5e0763998c958eab67616d0000b273cf84c5b276431b473e924802ab67616d0000b273e319baafd16e84f0408af2a0",
		"width" : 300
	  }, {
		"height" : 60,
		"url" : "https://mosaic.scdn.co/60/ab67616d0000b2734637341b9f507521afa9a778ab67616d0000b2739dfee5404d5e0763998c958eab67616d0000b273cf84c5b276431b473e924802ab67616d0000b273e319baafd16e84f0408af2a0",
		"width" : 60
	  } ],
	  "name" : "Top 2000 2019 Stemlijst",
	  "owner" : {
		"display_name" : "brent01002",
		"external_urls" : {
		  "spotify" : "https://open.spotify.com/user/brent01002"
		},
		"href" : "https://api.spotify.com/v1/users/brent01002",
		"id" : "brent01002",
		"type" : "user",
		"uri" : "spotify:user:brent01002"
	  },
	  "primary_color" : null,
	  "public" : true,
	  "snapshot_id" : "NDYsZTJmNDMwNzVhZGMxMWUzYjZlNjljOTJlZDI1YzM1MTU2NmY2ZDYyZg==",
	  "tracks" : {
		"href" : "https://api.spotify.com/v1/playlists/3vVJtlzkmcWCOVdx5bkz8L/tracks",
		"total" : 30
	  },
	  "type" : "playlist",
	  "uri" : "spotify:playlist:3vVJtlzkmcWCOVdx5bkz8L"
	}, {
	  "collaborative" : false,
	  "description" : "",
	  "external_urls" : {
		"spotify" : "https://open.spotify.com/playlist/7sbsYeerE17y6CEXb8xtQv"
	  },
	  "href" : "https://api.spotify.com/v1/playlists/7sbsYeerE17y6CEXb8xtQv",
	  "id" : "7sbsYeerE17y6CEXb8xtQv",
	  "images" : [ {
		"height" : 640,
		"url" : "https://mosaic.scdn.co/640/ab67616d0000b2734637341b9f507521afa9a778ab67616d0000b2739dfee5404d5e0763998c958eab67616d0000b273cf84c5b276431b473e924802ab67616d0000b273e319baafd16e84f0408af2a0",
		"width" : 640
	  }, {
		"height" : 300,
		"url" : "https://mosaic.scdn.co/300/ab67616d0000b2734637341b9f507521afa9a778ab67616d0000b2739dfee5404d5e0763998c958eab67616d0000b273cf84c5b276431b473e924802ab67616d0000b273e319baafd16e84f0408af2a0",
		"width" : 300
	  }, {
		"height" : 60,
		"url" : "https://mosaic.scdn.co/60/ab67616d0000b2734637341b9f507521afa9a778ab67616d0000b2739dfee5404d5e0763998c958eab67616d0000b273cf84c5b276431b473e924802ab67616d0000b273e319baafd16e84f0408af2a0",
		"width" : 60
	  } ],
	  "name" : "Top 2000 2020 Stemlijst",
	  "owner" : {
		"display_name" : "brent01002",
		"external_urls" : {
		  "spotify" : "https://open.spotify.com/user/brent01002"
		},
		"href" : "https://api.spotify.com/v1/users/brent01002",
		"id" : "brent01002",
		"type" : "user",
		"uri" : "spotify:user:brent01002"
	  },
	  "primary_color" : null,
	  "public" : false,
	  "snapshot_id" : "MjcsNmI1MjA3M2QwM2U0ZDU3MjJlYTE3OTYzNTA1NTk3YWVlNDA0OGZhYg==",
	  "tracks" : {
		"href" : "https://api.spotify.com/v1/playlists/7sbsYeerE17y6CEXb8xtQv/tracks",
		"total" : 35
	  },
	  "type" : "playlist",
	  "uri" : "spotify:playlist:7sbsYeerE17y6CEXb8xtQv"
	}, {
	  "collaborative" : true,
	  "description" : "",
	  "external_urls" : {
		"spotify" : "https://open.spotify.com/playlist/2dYhD6Gw5zf9qwatiZNPiS"
	  },
	  "href" : "https://api.spotify.com/v1/playlists/2dYhD6Gw5zf9qwatiZNPiS",
	  "id" : "2dYhD6Gw5zf9qwatiZNPiS",
	  "images" : [ {
		"height" : 640,
		"url" : "https://mosaic.scdn.co/640/ab67616d0000b27367bc29c251c777361b17a190ab67616d0000b2737c39dd133836c2c1c87e34d6ab67616d0000b27394c9217a398f5174757c0c78ab67616d0000b273e319baafd16e84f0408af2a0",
		"width" : 640
	  }, {
		"height" : 300,
		"url" : "https://mosaic.scdn.co/300/ab67616d0000b27367bc29c251c777361b17a190ab67616d0000b2737c39dd133836c2c1c87e34d6ab67616d0000b27394c9217a398f5174757c0c78ab67616d0000b273e319baafd16e84f0408af2a0",
		"width" : 300
	  }, {
		"height" : 60,
		"url" : "https://mosaic.scdn.co/60/ab67616d0000b27367bc29c251c777361b17a190ab67616d0000b2737c39dd133836c2c1c87e34d6ab67616d0000b27394c9217a398f5174757c0c78ab67616d0000b273e319baafd16e84f0408af2a0",
		"width" : 60
	  } ],
	  "name" : "uuuu",
	  "owner" : {
		"display_name" : "Jeroen Leeters",
		"external_urls" : {
		  "spotify" : "https://open.spotify.com/user/goldenglobe2014"
		},
		"href" : "https://api.spotify.com/v1/users/goldenglobe2014",
		"id" : "goldenglobe2014",
		"type" : "user",
		"uri" : "spotify:user:goldenglobe2014"
	  },
	  "primary_color" : null,
	  "public" : false,
	  "snapshot_id" : "MTMyLGY4Y2FkNmU0ZTQ4MWY4M2MyMmViMDE0N2VhNTNiNGNiODBhMDJhNjY=",
	  "tracks" : {
		"href" : "https://api.spotify.com/v1/playlists/2dYhD6Gw5zf9qwatiZNPiS/tracks",
		"total" : 100
	  },
	  "type" : "playlist",
	  "uri" : "spotify:playlist:2dYhD6Gw5zf9qwatiZNPiS"
	}, {
	  "collaborative" : true,
	  "description" : "Gezamelijke lijst voor Road trip avec der drei BOIS",
	  "external_urls" : {
		"spotify" : "https://open.spotify.com/playlist/4Omw2cm64gnVyn7DdINJj4"
	  },
	  "href" : "https://api.spotify.com/v1/playlists/4Omw2cm64gnVyn7DdINJj4",
	  "id" : "4Omw2cm64gnVyn7DdINJj4",
	  "images" : [ {
		"height" : null,
		"url" : "https://i.scdn.co/image/ab67706c0000bebb1c8b46237eda01f65d20d597",
		"width" : null
	  } ],
	  "name" : "NOOT NOOT MOTHAFUCKASSSS",
	  "owner" : {
		"display_name" : "Berend210",
		"external_urls" : {
		  "spotify" : "https://open.spotify.com/user/berend210"
		},
		"href" : "https://api.spotify.com/v1/users/berend210",
		"id" : "berend210",
		"type" : "user",
		"uri" : "spotify:user:berend210"
	  },
	  "primary_color" : null,
	  "public" : true,
	  "snapshot_id" : "NDI2LGRjYjYwMmI1NjUyZjkyYzQ1MTViODliZDZlZmExZTBjZmFiMDczMDg=",
	  "tracks" : {
		"href" : "https://api.spotify.com/v1/playlists/4Omw2cm64gnVyn7DdINJj4/tracks",
		"total" : 373
	  },
	  "type" : "playlist",
	  "uri" : "spotify:playlist:4Omw2cm64gnVyn7DdINJj4"
	}, {
	  "collaborative" : true,
	  "description" : "",
	  "external_urls" : {
		"spotify" : "https://open.spotify.com/playlist/79bkDuFuCtGKXgl7whkRDO"
	  },
	  "href" : "https://api.spotify.com/v1/playlists/79bkDuFuCtGKXgl7whkRDO",
	  "id" : "79bkDuFuCtGKXgl7whkRDO",
	  "images" : [ {
		"height" : 640,
		"url" : "https://mosaic.scdn.co/640/ab67616d0000b273587b26d49596162397b29ec8ab67616d0000b273b7bea3d01f04e6d0408d2afeab67616d0000b273b7c4c55475d92e10efab8d48ab67616d0000b273e0827a6cec3f1574249ec8c0",
		"width" : 640
	  }, {
		"height" : 300,
		"url" : "https://mosaic.scdn.co/300/ab67616d0000b273587b26d49596162397b29ec8ab67616d0000b273b7bea3d01f04e6d0408d2afeab67616d0000b273b7c4c55475d92e10efab8d48ab67616d0000b273e0827a6cec3f1574249ec8c0",
		"width" : 300
	  }, {
		"height" : 60,
		"url" : "https://mosaic.scdn.co/60/ab67616d0000b273587b26d49596162397b29ec8ab67616d0000b273b7bea3d01f04e6d0408d2afeab67616d0000b273b7c4c55475d92e10efab8d48ab67616d0000b273e0827a6cec3f1574249ec8c0",
		"width" : 60
	  } ],
	  "name" : "Newly Discovered",
	  "owner" : {
		"display_name" : "Jeroen Leeters",
		"external_urls" : {
		  "spotify" : "https://open.spotify.com/user/goldenglobe2014"
		},
		"href" : "https://api.spotify.com/v1/users/goldenglobe2014",
		"id" : "goldenglobe2014",
		"type" : "user",
		"uri" : "spotify:user:goldenglobe2014"
	  },
	  "primary_color" : null,
	  "public" : false,
	  "snapshot_id" : "MjIsZjhiZWY1YmE4OTBlNzA4YThiNWZmM2U5OTVkMWI1NWRjYTk2NTlkNQ==",
	  "tracks" : {
		"href" : "https://api.spotify.com/v1/playlists/79bkDuFuCtGKXgl7whkRDO/tracks",
		"total" : 15
	  },
	  "type" : "playlist",
	  "uri" : "spotify:playlist:79bkDuFuCtGKXgl7whkRDO"
	}, {
	  "collaborative" : true,
	  "description" : "",
	  "external_urls" : {
		"spotify" : "https://open.spotify.com/playlist/16jF6V0EEZMHCPs2wBWqan"
	  },
	  "href" : "https://api.spotify.com/v1/playlists/16jF6V0EEZMHCPs2wBWqan",
	  "id" : "16jF6V0EEZMHCPs2wBWqan",
	  "images" : [ {
		"height" : 640,
		"url" : "https://mosaic.scdn.co/640/ab67616d0000b2730389027010b78a5e7dce426bab67616d0000b27383e260c313dc1ff1f17909cfab67616d0000b273b00ee453b3496535eaa6e4b3ab67616d0000b273cdac19bbaee5cc123edcc26f",
		"width" : 640
	  }, {
		"height" : 300,
		"url" : "https://mosaic.scdn.co/300/ab67616d0000b2730389027010b78a5e7dce426bab67616d0000b27383e260c313dc1ff1f17909cfab67616d0000b273b00ee453b3496535eaa6e4b3ab67616d0000b273cdac19bbaee5cc123edcc26f",
		"width" : 300
	  }, {
		"height" : 60,
		"url" : "https://mosaic.scdn.co/60/ab67616d0000b2730389027010b78a5e7dce426bab67616d0000b27383e260c313dc1ff1f17909cfab67616d0000b273b00ee453b3496535eaa6e4b3ab67616d0000b273cdac19bbaee5cc123edcc26f",
		"width" : 60
	  } ],
	  "name" : "Song Dumpster!",
	  "owner" : {
		"display_name" : "Jeroen Leeters",
		"external_urls" : {
		  "spotify" : "https://open.spotify.com/user/goldenglobe2014"
		},
		"href" : "https://api.spotify.com/v1/users/goldenglobe2014",
		"id" : "goldenglobe2014",
		"type" : "user",
		"uri" : "spotify:user:goldenglobe2014"
	  },
	  "primary_color" : null,
	  "public" : false,
	  "snapshot_id" : "MTUsMWUxYTc3MDg1ODRhZTg3YjY3NGQ0YzZlNjUwYzM4OTQzMDE4YWQ5NA==",
	  "tracks" : {
		"href" : "https://api.spotify.com/v1/playlists/16jF6V0EEZMHCPs2wBWqan/tracks",
		"total" : 13
	  },
	  "type" : "playlist",
	  "uri" : "spotify:playlist:16jF6V0EEZMHCPs2wBWqan"
	} ],
	"limit" : 20,
	"next" : "https://api.spotify.com/v1/users/brent01002/playlists?offset=20&limit=20",
	"offset" : 0,
	"previous" : null,
	"total" : 96
  }